[
  {
    "model": "student.country",
    "fields": {
      "name": "Австралия",
      "iso2": "AU",
      "iso": "AUS",
      "e164": 36
    }
  },
  {
    "model": "student.country",
    "fields": {
      "name": "Австрия",
      "iso2": "AT",
      "iso": "AUT",
      "e164": 40
    }
  },
  {
    "model": "student.country",
    "fields": {
      "name": "Азербайджан",
      "iso2": "AZ",
      "iso": "AZE",
      "e164": 31
    }
  },
  {
    "model": "student.country",
    "fields": {
      "name": "Аландские острова",
      "iso2": "AX",
      "iso": "ALA",
      "e164": 248
    }
  },
  {
    "model": "student.country",
    "fields": {
      "name": "Албания",
      "iso2": "AL",
      "iso": "ALB",
      "e164": 8
    }
  },
  {
    "model": "student.country",
    "fields": {
      "name": "Алжир",
      "iso2": "DZ",
      "iso": "DZA",
      "e164": 12
    }
  },
  {
    "model": "student.country",
    "fields": {
      "name": "Американское Самоа",
      "iso2": "AS",
      "iso": "ASM",
      "e164": 16
    }
  },
  {
    "model": "student.country",
    "fields": {
      "name": "Ангилья",
      "iso2": "AI",
      "iso": "AIA",
      "e164": 660
    }
  },
  {
    "model": "student.country",
    "fields": {
      "name": "Ангола",
      "iso2": "AO",
      "iso": "AGO",
      "e164": 24
    }
  },
  {
    "model": "student.country",
    "fields": {
      "name": "Андорра",
      "iso2": "AD",
      "iso": "AND",
      "e164": 20
    }
  },
  {
    "model": "student.country",
    "fields": {
      "name": "Антарктида",
      "iso2": "AQ",
      "iso": "ATA",
      "e164": 10
    }
  },
  {
    "model": "student.country",
    "fields": {
      "name": "Антигуа и Барбуда",
      "iso2": "AG",
      "iso": "ATG",
      "e164": 28
    }
  },
  {
    "model": "student.country",
    "fields": {
      "name": "Аргентина",
      "iso2": "AR",
      "iso": "ARG",
      "e164": 32
    }
  },
  {
    "model": "student.country",
    "fields": {
      "name": "Армения",
      "iso2": "AM",
      "iso": "ARM",
      "e164": 51
    }
  },
  {
    "model": "student.country",
    "fields": {
      "name": "Аруба",
      "iso2": "AW",
      "iso": "ABW",
      "e164": 533
    }
  },
  {
    "model": "student.country",
    "fields": {
      "name": "Афганистан",
      "iso2": "AF",
      "iso": "AFG",
      "e164": 4
    }
  },
  {
    "model": "student.country",
    "fields": {
      "name": "Багамские Острова",
      "iso2": "BS",
      "iso": "BHS",
      "e164": 44
    }
  },
  {
    "model": "student.country",
    "fields": {
      "name": "Бангладеш",
      "iso2": "BD",
      "iso": "BGD",
      "e164": 50
    }
  },
  {
    "model": "student.country",
    "fields": {
      "name": "Барбадос",
      "iso2": "BB",
      "iso": "BRB",
      "e164": 52
    }
  },
  {
    "model": "student.country",
    "fields": {
      "name": "Бахрейн",
      "iso2": "BH",
      "iso": "BHR",
      "e164": 48
    }
  },
  {
    "model": "student.country",
    "fields": {
      "name": "Белиз",
      "iso2": "BZ",
      "iso": "BLZ",
      "e164": 84
    }
  },
  {
    "model": "student.country",
    "fields": {
      "name": "Белоруссия",
      "iso2": "BY",
      "iso": "BLR",
      "e164": 112
    }
  },
  {
    "model": "student.country",
    "fields": {
      "name": "Бельгия",
      "iso2": "BE",
      "iso": "BEL",
      "e164": 56
    }
  },
  {
    "model": "student.country",
    "fields": {
      "name": "Бенин",
      "iso2": "BJ",
      "iso": "BEN",
      "e164": 204
    }
  },
  {
    "model": "student.country",
    "fields": {
      "name": "Бермуды",
      "iso2": "BM",
      "iso": "BMU",
      "e164": 60
    }
  },
  {
    "model": "student.country",
    "fields": {
      "name": "Болгария",
      "iso2": "BG",
      "iso": "BGR",
      "e164": 100
    }
  },
  {
    "model": "student.country",
    "fields": {
      "name": "Боливия",
      "iso2": "BO",
      "iso": "BOL",
      "e164": 68
    }
  },
  {
    "model": "student.country",
    "fields": {
      "name": "Бонэйр, Синт-Эстатиус и Саба",
      "iso2": "BQ",
      "iso": "BES",
      "e164": 535
    }
  },
  {
    "model": "student.country",
    "fields": {
      "name": "Босния и Герцеговина",
      "iso2": "BA",
      "iso": "BIH",
      "e164": 70
    }
  },
  {
    "model": "student.country",
    "fields": {
      "name": "Ботсвана",
      "iso2": "BW",
      "iso": "BWA",
      "e164": 72
    }
  },
  {
    "model": "student.country",
    "fields": {
      "name": "Бразилия",
      "iso2": "BR",
      "iso": "BRA",
      "e164": 76
    }
  },
  {
    "model": "student.country",
    "fields": {
      "name": "Британская территория в Индийском океане",
      "iso2": "IO",
      "iso": "IOT",
      "e164": 86
    }
  },
  {
    "model": "student.country",
    "fields": {
      "name": "Бруней",
      "iso2": "BN",
      "iso": "BRN",
      "e164": 96
    }
  },
  {
    "model": "student.country",
    "fields": {
      "name": "Буркина-Фасо",
      "iso2": "BF",
      "iso": "BFA",
      "e164": 854
    }
  },
  {
    "model": "student.country",
    "fields": {
      "name": "Бурунди",
      "iso2": "BI",
      "iso": "BDI",
      "e164": 108
    }
  },
  {
    "model": "student.country",
    "fields": {
      "name": "Бутан",
      "iso2": "BT",
      "iso": "BTN",
      "e164": 64
    }
  },
  {
    "model": "student.country",
    "fields": {
      "name": "Вануату",
      "iso2": "VU",
      "iso": "VUT",
      "e164": 548
    }
  },
  {
    "model": "student.country",
    "fields": {
      "name": "Ватикан",
      "iso2": "VA",
      "iso": "VAT",
      "e164": 336
    }
  },
  {
    "model": "student.country",
    "fields": {
      "name": "Великобритания",
      "iso2": "GB",
      "iso": "GBR",
      "e164": 826
    }
  },
  {
    "model": "student.country",
    "fields": {
      "name": "Венгрия",
      "iso2": "HU",
      "iso": "HUN",
      "e164": 348
    }
  },
  {
    "model": "student.country",
    "fields": {
      "name": "Венесуэла",
      "iso2": "VE",
      "iso": "VEN",
      "e164": 862
    }
  },
  {
    "model": "student.country",
    "fields": {
      "name": "Виргинские Острова (Великобритания)",
      "iso2": "VG",
      "iso": "VGB",
      "e164": 92
    }
  },
  {
    "model": "student.country",
    "fields": {
      "name": "Виргинские Острова (США)",
      "iso2": "VI",
      "iso": "VIR",
      "e164": 850
    }
  },
  {
    "model": "student.country",
    "fields": {
      "name": "Внешние малые острова США",
      "iso2": "UM",
      "iso": "UMI",
      "e164": 581
    }
  },
  {
    "model": "student.country",
    "fields": {
      "name": "Восточный Тимор",
      "iso2": "TL",
      "iso": "TLS",
      "e164": 626
    }
  },
  {
    "model": "student.country",
    "fields": {
      "name": "Вьетнам",
      "iso2": "VN",
      "iso": "VNM",
      "e164": 704
    }
  },
  {
    "model": "student.country",
    "fields": {
      "name": "Габон",
      "iso2": "GA",
      "iso": "GAB",
      "e164": 266
    }
  },
  {
    "model": "student.country",
    "fields": {
      "name": "Гаити",
      "iso2": "HT",
      "iso": "HTI",
      "e164": 332
    }
  },
  {
    "model": "student.country",
    "fields": {
      "name": "Гайана",
      "iso2": "GY",
      "iso": "GUY",
      "e164": 328
    }
  },
  {
    "model": "student.country",
    "fields": {
      "name": "Гамбия",
      "iso2": "GM",
      "iso": "GMB",
      "e164": 270
    }
  },
  {
    "model": "student.country",
    "fields": {
      "name": "Гана",
      "iso2": "GH",
      "iso": "GHA",
      "e164": 288
    }
  },
  {
    "model": "student.country",
    "fields": {
      "name": "Гваделупа",
      "iso2": "GP",
      "iso": "GLP",
      "e164": 312
    }
  },
  {
    "model": "student.country",
    "fields": {
      "name": "Гватемала",
      "iso2": "GT",
      "iso": "GTM",
      "e164": 320
    }
  },
  {
    "model": "student.country",
    "fields": {
      "name": "Гвиана",
      "iso2": "GF",
      "iso": "GUF",
      "e164": 254
    }
  },
  {
    "model": "student.country",
    "fields": {
      "name": "Гвинея",
      "iso2": "GN",
      "iso": "GIN",
      "e164": 324
    }
  },
  {
    "model": "student.country",
    "fields": {
      "name": "Гвинея-Бисау",
      "iso2": "GW",
      "iso": "GNB",
      "e164": 624
    }
  },
  {
    "model": "student.country",
    "fields": {
      "name": "Германия",
      "iso2": "DE",
      "iso": "DEU",
      "e164": 276
    }
  },
  {
    "model": "student.country",
    "fields": {
      "name": "Гернси",
      "iso2": "GG",
      "iso": "GGY",
      "e164": 831
    }
  },
  {
    "model": "student.country",
    "fields": {
      "name": "Гибралтар",
      "iso2": "GI",
      "iso": "GIB",
      "e164": 292
    }
  },
  {
    "model": "student.country",
    "fields": {
      "name": "Гондурас",
      "iso2": "HN",
      "iso": "HND",
      "e164": 340
    }
  },
  {
    "model": "student.country",
    "fields": {
      "name": "Гонконг",
      "iso2": "HK",
      "iso": "HKG",
      "e164": 344
    }
  },
  {
    "model": "student.country",
    "fields": {
      "name": "Государство Палестина",
      "iso2": "PS",
      "iso": "PSE",
      "e164": 275
    }
  },
  {
    "model": "student.country",
    "fields": {
      "name": "Гренада",
      "iso2": "GD",
      "iso": "GRD",
      "e164": 308
    }
  },
  {
    "model": "student.country",
    "fields": {
      "name": "Гренландия",
      "iso2": "GL",
      "iso": "GRL",
      "e164": 304
    }
  },
  {
    "model": "student.country",
    "fields": {
      "name": "Греция",
      "iso2": "GR",
      "iso": "GRC",
      "e164": 300
    }
  },
  {
    "model": "student.country",
    "fields": {
      "name": "Грузия",
      "iso2": "GE",
      "iso": "GEO",
      "e164": 268
    }
  },
  {
    "model": "student.country",
    "fields": {
      "name": "Гуам",
      "iso2": "GU",
      "iso": "GUM",
      "e164": 316
    }
  },
  {
    "model": "student.country",
    "fields": {
      "name": "Дания",
      "iso2": "DK",
      "iso": "DNK",
      "e164": 208
    }
  },
  {
    "model": "student.country",
    "fields": {
      "name": "Джерси",
      "iso2": "JE",
      "iso": "JEY",
      "e164": 832
    }
  },
  {
    "model": "student.country",
    "fields": {
      "name": "Джибути",
      "iso2": "DJ",
      "iso": "DJI",
      "e164": 262
    }
  },
  {
    "model": "student.country",
    "fields": {
      "name": "Доминика",
      "iso2": "DM",
      "iso": "DMA",
      "e164": 212
    }
  },
  {
    "model": "student.country",
    "fields": {
      "name": "Доминиканская Республика",
      "iso2": "DO",
      "iso": "DOM",
      "e164": 214
    }
  },
  {
    "model": "student.country",
    "fields": {
      "name": "ДР Конго",
      "iso2": "CD",
      "iso": "COD",
      "e164": 180
    }
  },
  {
    "model": "student.country",
    "fields": {
      "name": "Египет",
      "iso2": "EG",
      "iso": "EGY",
      "e164": 818
    }
  },
  {
    "model": "student.country",
    "fields": {
      "name": "Замбия",
      "iso2": "ZM",
      "iso": "ZMB",
      "e164": 894
    }
  },
  {
    "model": "student.country",
    "fields": {
      "name": "Зимбабве",
      "iso2": "ZW",
      "iso": "ZWE",
      "e164": 716
    }
  },
  {
    "model": "student.country",
    "fields": {
      "name": "Израиль",
      "iso2": "IL",
      "iso": "ISR",
      "e164": 376
    }
  },
  {
    "model": "student.country",
    "fields": {
      "name": "Индия Индия",
      "iso2": "IN",
      "iso": "IND",
      "e164": 356
    }
  },
  {
    "model": "student.country",
    "fields": {
      "name": "Индонезия",
      "iso2": "ID",
      "iso": "IDN",
      "e164": 360
    }
  },
  {
    "model": "student.country",
    "fields": {
      "name": "Иордания",
      "iso2": "JO",
      "iso": "JOR",
      "e164": 400
    }
  },
  {
    "model": "student.country",
    "fields": {
      "name": "Ирак",
      "iso2": "IQ",
      "iso": "IRQ",
      "e164": 368
    }
  },
  {
    "model": "student.country",
    "fields": {
      "name": "Иран",
      "iso2": "IR",
      "iso": "IRN",
      "e164": 364
    }
  },
  {
    "model": "student.country",
    "fields": {
      "name": "Ирландия",
      "iso2": "IE",
      "iso": "IRL",
      "e164": 372
    }
  },
  {
    "model": "student.country",
    "fields": {
      "name": "Исландия",
      "iso2": "IS",
      "iso": "ISL",
      "e164": 352
    }
  },
  {
    "model": "student.country",
    "fields": {
      "name": "Испания",
      "iso2": "ES",
      "iso": "ESP",
      "e164": 724
    }
  },
  {
    "model": "student.country",
    "fields": {
      "name": "Италия",
      "iso2": "IT",
      "iso": "ITA",
      "e164": 380
    }
  },
  {
    "model": "student.country",
    "fields": {
      "name": "Йемен",
      "iso2": "YE",
      "iso": "YEM",
      "e164": 887
    }
  },
  {
    "model": "student.country",
    "fields": {
      "name": "Кабо-Верде",
      "iso2": "CV",
      "iso": "CPV",
      "e164": 132
    }
  },
  {
    "model": "student.country",
    "fields": {
      "name": "Казахстан",
      "iso2": "KZ",
      "iso": "KAZ",
      "e164": 398
    }
  },
  {
    "model": "student.country",
    "fields": {
      "name": "Камбоджа",
      "iso2": "KH",
      "iso": "KHM",
      "e164": 116
    }
  },
  {
    "model": "student.country",
    "fields": {
      "name": "Камерун",
      "iso2": "CM",
      "iso": "CMR",
      "e164": 120
    }
  },
  {
    "model": "student.country",
    "fields": {
      "name": "Канада",
      "iso2": "CA",
      "iso": "CAN",
      "e164": 124
    }
  },
  {
    "model": "student.country",
    "fields": {
      "name": "Катар",
      "iso2": "QA",
      "iso": "QAT",
      "e164": 634
    }
  },
  {
    "model": "student.country",
    "fields": {
      "name": "Кения",
      "iso2": "KE",
      "iso": "KEN",
      "e164": 404
    }
  },
  {
    "model": "student.country",
    "fields": {
      "name": "Кипр",
      "iso2": "CY",
      "iso": "CYP",
      "e164": 196
    }
  },
  {
    "model": "student.country",
    "fields": {
      "name": "Киргизия",
      "iso2": "KG",
      "iso": "KGZ",
      "e164": 417
    }
  },
  {
    "model": "student.country",
    "fields": {
      "name": "Кирибати",
      "iso2": "KI",
      "iso": "KIR",
      "e164": 296
    }
  },
  {
    "model": "student.country",
    "fields": {
      "name": "Китай (Китайская Народная Республика)",
      "iso2": "CN",
      "iso": "CHN",
      "e164": 156
    }
  },
  {
    "model": "student.country",
    "fields": {
      "name": "Китайская Республика",
      "iso2": "TW",
      "iso": "TWN",
      "e164": 158
    }
  },
  {
    "model": "student.country",
    "fields": {
      "name": "КНДР (Корейская Народно-Демократическая Республика)",
      "iso2": "KP",
      "iso": "PRK",
      "e164": 408
    }
  },
  {
    "model": "student.country",
    "fields": {
      "name": "Кокосовые острова",
      "iso2": "CC",
      "iso": "CCK",
      "e164": 166
    }
  },
  {
    "model": "student.country",
    "fields": {
      "name": "Колумбия",
      "iso2": "CO",
      "iso": "COL",
      "e164": 170
    }
  },
  {
    "model": "student.country",
    "fields": {
      "name": "Коморы",
      "iso2": "KM",
      "iso": "COM",
      "e164": 174
    }
  },
  {
    "model": "student.country",
    "fields": {
      "name": "Коста-Рика",
      "iso2": "CR",
      "iso": "CRI",
      "e164": 188
    }
  },
  {
    "model": "student.country",
    "fields": {
      "name": "Кот-д’Ивуар",
      "iso2": "CI",
      "iso": "CIV",
      "e164": 384
    }
  },
  {
    "model": "student.country",
    "fields": {
      "name": "Куба",
      "iso2": "CU",
      "iso": "CUB",
      "e164": 192
    }
  },
  {
    "model": "student.country",
    "fields": {
      "name": "Кувейт",
      "iso2": "KW",
      "iso": "KWT",
      "e164": 414
    }
  },
  {
    "model": "student.country",
    "fields": {
      "name": "Кюрасао",
      "iso2": "CW",
      "iso": "CUW",
      "e164": 531
    }
  },
  {
    "model": "student.country",
    "fields": {
      "name": "Лаос",
      "iso2": "LA",
      "iso": "LAO",
      "e164": 418
    }
  },
  {
    "model": "student.country",
    "fields": {
      "name": "Латвия",
      "iso2": "LV",
      "iso": "LVA",
      "e164": 428
    }
  },
  {
    "model": "student.country",
    "fields": {
      "name": "Лесото",
      "iso2": "LS",
      "iso": "LSO",
      "e164": 426
    }
  },
  {
    "model": "student.country",
    "fields": {
      "name": "Либерия",
      "iso2": "LR",
      "iso": "LBR",
      "e164": 430
    }
  },
  {
    "model": "student.country",
    "fields": {
      "name": "Ливан",
      "iso2": "LB",
      "iso": "LBN",
      "e164": 422
    }
  },
  {
    "model": "student.country",
    "fields": {
      "name": "Ливия",
      "iso2": "LY",
      "iso": "LBY",
      "e164": 434
    }
  },
  {
    "model": "student.country",
    "fields": {
      "name": "Литва",
      "iso2": "LT",
      "iso": "LTU",
      "e164": 440
    }
  },
  {
    "model": "student.country",
    "fields": {
      "name": "Лихтенштейн",
      "iso2": "LI",
      "iso": "LIE",
      "e164": 438
    }
  },
  {
    "model": "student.country",
    "fields": {
      "name": "Люксембург",
      "iso2": "LU",
      "iso": "LUX",
      "e164": 442
    }
  },
  {
    "model": "student.country",
    "fields": {
      "name": "Маврикий",
      "iso2": "MU",
      "iso": "MUS",
      "e164": 480
    }
  },
  {
    "model": "student.country",
    "fields": {
      "name": "Мавритания",
      "iso2": "MR",
      "iso": "MRT",
      "e164": 478
    }
  },
  {
    "model": "student.country",
    "fields": {
      "name": "Мадагаскар",
      "iso2": "MG",
      "iso": "MDG",
      "e164": 450
    }
  },
  {
    "model": "student.country",
    "fields": {
      "name": "Майотта",
      "iso2": "YT",
      "iso": "MYT",
      "e164": 175
    }
  },
  {
    "model": "student.country",
    "fields": {
      "name": "Макао",
      "iso2": "MO",
      "iso": "MAC",
      "e164": 446
    }
  },
  {
    "model": "student.country",
    "fields": {
      "name": "Малави",
      "iso2": "MW",
      "iso": "MWI",
      "e164": 454
    }
  },
  {
    "model": "student.country",
    "fields": {
      "name": "Малайзия",
      "iso2": "MY",
      "iso": "MYS",
      "e164": 458
    }
  },
  {
    "model": "student.country",
    "fields": {
      "name": "Мали",
      "iso2": "ML",
      "iso": "MLI",
      "e164": 466
    }
  },
  {
    "model": "student.country",
    "fields": {
      "name": "Мальдивы",
      "iso2": "MV",
      "iso": "MDV",
      "e164": 462
    }
  },
  {
    "model": "student.country",
    "fields": {
      "name": "Мальта",
      "iso2": "MT",
      "iso": "MLT",
      "e164": 470
    }
  },
  {
    "model": "student.country",
    "fields": {
      "name": "Марокко",
      "iso2": "MA",
      "iso": "MAR",
      "e164": 504
    }
  },
  {
    "model": "student.country",
    "fields": {
      "name": "Мартиника",
      "iso2": "MQ",
      "iso": "MTQ",
      "e164": 474
    }
  },
  {
    "model": "student.country",
    "fields": {
      "name": "Маршалловы Острова",
      "iso2": "MH",
      "iso": "MHL",
      "e164": 584
    }
  },
  {
    "model": "student.country",
    "fields": {
      "name": "Мексика",
      "iso2": "MX",
      "iso": "MEX",
      "e164": 484
    }
  },
  {
    "model": "student.country",
    "fields": {
      "name": "Микронезия",
      "iso2": "FM",
      "iso": "FSM",
      "e164": 583
    }
  },
  {
    "model": "student.country",
    "fields": {
      "name": "Мозамбик",
      "iso2": "MZ",
      "iso": "MOZ",
      "e164": 508
    }
  },
  {
    "model": "student.country",
    "fields": {
      "name": "Молдавия",
      "iso2": "MD",
      "iso": "MDA",
      "e164": 498
    }
  },
  {
    "model": "student.country",
    "fields": {
      "name": "Монако",
      "iso2": "MC",
      "iso": "MCO",
      "e164": 492
    }
  },
  {
    "model": "student.country",
    "fields": {
      "name": "Монголия",
      "iso2": "MN",
      "iso": "MNG",
      "e164": 496
    }
  },
  {
    "model": "student.country",
    "fields": {
      "name": "Монтсеррат",
      "iso2": "MS",
      "iso": "MSR",
      "e164": 500
    }
  },
  {
    "model": "student.country",
    "fields": {
      "name": "Мьянма",
      "iso2": "MM",
      "iso": "MMR",
      "e164": 104
    }
  },
  {
    "model": "student.country",
    "fields": {
      "name": "Намибия",
      "iso2": "NA",
      "iso": "NAM",
      "e164": 516
    }
  },
  {
    "model": "student.country",
    "fields": {
      "name": "Науру",
      "iso2": "NR",
      "iso": "NRU",
      "e164": 520
    }
  },
  {
    "model": "student.country",
    "fields": {
      "name": "Непал",
      "iso2": "NP",
      "iso": "NPL",
      "e164": 524
    }
  },
  {
    "model": "student.country",
    "fields": {
      "name": "Нигер",
      "iso2": "NE",
      "iso": "NER",
      "e164": 562
    }
  },
  {
    "model": "student.country",
    "fields": {
      "name": "Нигерия",
      "iso2": "NG",
      "iso": "NGA",
      "e164": 566
    }
  },
  {
    "model": "student.country",
    "fields": {
      "name": "Нидерланды",
      "iso2": "NL",
      "iso": "NLD",
      "e164": 528
    }
  },
  {
    "model": "student.country",
    "fields": {
      "name": "Никарагуа",
      "iso2": "NI",
      "iso": "NIC",
      "e164": 558
    }
  },
  {
    "model": "student.country",
    "fields": {
      "name": "Ниуэ",
      "iso2": "NU",
      "iso": "NIU",
      "e164": 570
    }
  },
  {
    "model": "student.country",
    "fields": {
      "name": "Новая Зеландия",
      "iso2": "NZ",
      "iso": "NZL",
      "e164": 554
    }
  },
  {
    "model": "student.country",
    "fields": {
      "name": "Новая Каледония",
      "iso2": "NC",
      "iso": "NCL",
      "e164": 540
    }
  },
  {
    "model": "student.country",
    "fields": {
      "name": "Норвегия",
      "iso2": "NO",
      "iso": "NOR",
      "e164": 578
    }
  },
  {
    "model": "student.country",
    "fields": {
      "name": "ОАЭ",
      "iso2": "AE",
      "iso": "ARE",
      "e164": 784
    }
  },
  {
    "model": "student.country",
    "fields": {
      "name": "Оман",
      "iso2": "OM",
      "iso": "OMN",
      "e164": 512
    }
  },
  {
    "model": "student.country",
    "fields": {
      "name": "Остров Буве",
      "iso2": "BV",
      "iso": "BVT",
      "e164": 74
    }
  },
  {
    "model": "student.country",
    "fields": {
      "name": "Остров Мэн",
      "iso2": "IM",
      "iso": "IMN",
      "e164": 833
    }
  },
  {
    "model": "student.country",
    "fields": {
      "name": "Остров Норфолк",
      "iso2": "NF",
      "iso": "NFK",
      "e164": 574
    }
  },
  {
    "model": "student.country",
    "fields": {
      "name": "Остров Рождества",
      "iso2": "CX",
      "iso": "CXR",
      "e164": 162
    }
  },
  {
    "model": "student.country",
    "fields": {
      "name": "Острова Кайман",
      "iso2": "KY",
      "iso": "CYM",
      "e164": 136
    }
  },
  {
    "model": "student.country",
    "fields": {
      "name": "Острова Кука",
      "iso2": "CK",
      "iso": "COK",
      "e164": 184
    }
  },
  {
    "model": "student.country",
    "fields": {
      "name": "Острова Питкэрн",
      "iso2": "PN",
      "iso": "PCN",
      "e164": 612
    }
  },
  {
    "model": "student.country",
    "fields": {
      "name": "Острова Святой Елены, Вознесения и Тристан-да-Кунья",
      "iso2": "SH",
      "iso": "SHN",
      "e164": 654
    }
  },
  {
    "model": "student.country",
    "fields": {
      "name": "Пакистан",
      "iso2": "PK",
      "iso": "PAK",
      "e164": 586
    }
  },
  {
    "model": "student.country",
    "fields": {
      "name": "Палау",
      "iso2": "PW",
      "iso": "PLW",
      "e164": 585
    }
  },
  {
    "model": "student.country",
    "fields": {
      "name": "Панама",
      "iso2": "PA",
      "iso": "PAN",
      "e164": 591
    }
  },
  {
    "model": "student.country",
    "fields": {
      "name": "Папуа — Новая Гвинея",
      "iso2": "PG",
      "iso": "PNG",
      "e164": 598
    }
  },
  {
    "model": "student.country",
    "fields": {
      "name": "Парагвай",
      "iso2": "PY",
      "iso": "PRY",
      "e164": 600
    }
  },
  {
    "model": "student.country",
    "fields": {
      "name": "Перу",
      "iso2": "PE",
      "iso": "PER",
      "e164": 604
    }
  },
  {
    "model": "student.country",
    "fields": {
      "name": "Польша",
      "iso2": "PL",
      "iso": "POL",
      "e164": 616
    }
  },
  {
    "model": "student.country",
    "fields": {
      "name": "Португалия",
      "iso2": "PT",
      "iso": "PRT",
      "e164": 620
    }
  },
  {
    "model": "student.country",
    "fields": {
      "name": "Пуэрто-Рико",
      "iso2": "PR",
      "iso": "PRI",
      "e164": 630
    }
  },
  {
    "model": "student.country",
    "fields": {
      "name": "Республика Конго",
      "iso2": "CG",
      "iso": "COG",
      "e164": 178
    }
  },
  {
    "model": "student.country",
    "fields": {
      "name": "Республика Корея",
      "iso2": "KR",
      "iso": "KOR",
      "e164": 410
    }
  },
  {
    "model": "student.country",
    "fields": {
      "name": "Реюньон",
      "iso2": "RE",
      "iso": "REU",
      "e164": 638
    }
  },
  {
    "model": "student.country",
    "fields": {
      "name": "Россия",
      "iso2": "RU",
      "iso": "RUS",
      "e164": 643
    }
  },
  {
    "model": "student.country",
    "fields": {
      "name": "Руанда",
      "iso2": "RW",
      "iso": "RWA",
      "e164": 646
    }
  },
  {
    "model": "student.country",
    "fields": {
      "name": "Румыния",
      "iso2": "RO",
      "iso": "ROU",
      "e164": 642
    }
  },
  {
    "model": "student.country",
    "fields": {
      "name": "САДР",
      "iso2": "EH",
      "iso": "ESH",
      "e164": 732
    }
  },
  {
    "model": "student.country",
    "fields": {
      "name": "Сальвадор",
      "iso2": "SV",
      "iso": "SLV",
      "e164": 222
    }
  },
  {
    "model": "student.country",
    "fields": {
      "name": "Самоа",
      "iso2": "WS",
      "iso": "WSM",
      "e164": 882
    }
  },
  {
    "model": "student.country",
    "fields": {
      "name": "Сан-Марино",
      "iso2": "SM",
      "iso": "SMR",
      "e164": 674
    }
  },
  {
    "model": "student.country",
    "fields": {
      "name": "Сан-Томе и Принсипи",
      "iso2": "ST",
      "iso": "STP",
      "e164": 678
    }
  },
  {
    "model": "student.country",
    "fields": {
      "name": "Саудовская Аравия",
      "iso2": "SA",
      "iso": "SAU",
      "e164": 682
    }
  },
  {
    "model": "student.country",
    "fields": {
      "name": "Северная Македония",
      "iso2": "MK",
      "iso": "MKD",
      "e164": 807
    }
  },
  {
    "model": "student.country",
    "fields": {
      "name": "Северные Марианские Острова",
      "iso2": "MP",
      "iso": "MNP",
      "e164": 580
    }
  },
  {
    "model": "student.country",
    "fields": {
      "name": "Сейшельские Острова",
      "iso2": "SC",
      "iso": "SYC",
      "e164": 690
    }
  },
  {
    "model": "student.country",
    "fields": {
      "name": "Сен-Бартелеми (Карибы)",
      "iso2": "BL",
      "iso": "BLM",
      "e164": 652
    }
  },
  {
    "model": "student.country",
    "fields": {
      "name": "Сен-Мартен",
      "iso2": "MF",
      "iso": "MAF",
      "e164": 663
    }
  },
  {
    "model": "student.country",
    "fields": {
      "name": "Сен-Пьер и Микелон",
      "iso2": "PM",
      "iso": "SPM",
      "e164": 666
    }
  },
  {
    "model": "student.country",
    "fields": {
      "name": "Сенегал",
      "iso2": "SN",
      "iso": "SEN",
      "e164": 686
    }
  },
  {
    "model": "student.country",
    "fields": {
      "name": "Сент-Винсент и Гренадины",
      "iso2": "VC",
      "iso": "VCT",
      "e164": 670
    }
  },
  {
    "model": "student.country",
    "fields": {
      "name": "Сент-Китс и Невис",
      "iso2": "KN",
      "iso": "KNA",
      "e164": 659
    }
  },
  {
    "model": "student.country",
    "fields": {
      "name": "Сент-Люсия",
      "iso2": "LC",
      "iso": "LCA",
      "e164": 662
    }
  },
  {
    "model": "student.country",
    "fields": {
      "name": "Сербия",
      "iso2": "RS",
      "iso": "SRB",
      "e164": 688
    }
  },
  {
    "model": "student.country",
    "fields": {
      "name": "Сингапур",
      "iso2": "SG",
      "iso": "SGP",
      "e164": 702
    }
  },
  {
    "model": "student.country",
    "fields": {
      "name": "Синт-Мартен",
      "iso2": "SX",
      "iso": "SXM",
      "e164": 534
    }
  },
  {
    "model": "student.country",
    "fields": {
      "name": "Сирия",
      "iso2": "SY",
      "iso": "SYR",
      "e164": 760
    }
  },
  {
    "model": "student.country",
    "fields": {
      "name": "Словакия",
      "iso2": "SK",
      "iso": "SVK",
      "e164": 703
    }
  },
  {
    "model": "student.country",
    "fields": {
      "name": "Словения",
      "iso2": "SI",
      "iso": "SVN",
      "e164": 705
    }
  },
  {
    "model": "student.country",
    "fields": {
      "name": "Соломоновы Острова",
      "iso2": "SB",
      "iso": "SLB",
      "e164": 90
    }
  },
  {
    "model": "student.country",
    "fields": {
      "name": "Сомали",
      "iso2": "SO",
      "iso": "SOM",
      "e164": 706
    }
  },
  {
    "model": "student.country",
    "fields": {
      "name": "Судан",
      "iso2": "SD",
      "iso": "SDN",
      "e164": 729
    }
  },
  {
    "model": "student.country",
    "fields": {
      "name": "Суринам",
      "iso2": "SR",
      "iso": "SUR",
      "e164": 740
    }
  },
  {
    "model": "student.country",
    "fields": {
      "name": "США",
      "iso2": "US",
      "iso": "USA",
      "e164": 840
    }
  },
  {
    "model": "student.country",
    "fields": {
      "name": "Сьерра-Леоне",
      "iso2": "SL",
      "iso": "SLE",
      "e164": 694
    }
  },
  {
    "model": "student.country",
    "fields": {
      "name": "Таджикистан",
      "iso2": "TJ",
      "iso": "TJK",
      "e164": 762
    }
  },
  {
    "model": "student.country",
    "fields": {
      "name": "Таиланд",
      "iso2": "TH",
      "iso": "THA",
      "e164": 764
    }
  },
  {
    "model": "student.country",
    "fields": {
      "name": "Танзания",
      "iso2": "TZ",
      "iso": "TZA",
      "e164": 834
    }
  },
  {
    "model": "student.country",
    "fields": {
      "name": "Теркс и Кайкос",
      "iso2": "TC",
      "iso": "TCA",
      "e164": 796
    }
  },
  {
    "model": "student.country",
    "fields": {
      "name": "Того",
      "iso2": "TG",
      "iso": "TGO",
      "e164": 768
    }
  },
  {
    "model": "student.country",
    "fields": {
      "name": "Токелау",
      "iso2": "TK",
      "iso": "TKL",
      "e164": 772
    }
  },
  {
    "model": "student.country",
    "fields": {
      "name": "Тонга",
      "iso2": "TO",
      "iso": "TON",
      "e164": 776
    }
  },
  {
    "model": "student.country",
    "fields": {
      "name": "Тринидад и Тобаго",
      "iso2": "TT",
      "iso": "TTO",
      "e164": 780
    }
  },
  {
    "model": "student.country",
    "fields": {
      "name": "Тувалу",
      "iso2": "TV",
      "iso": "TUV",
      "e164": 798
    }
  },
  {
    "model": "student.country",
    "fields": {
      "name": "Тунис",
      "iso2": "TN",
      "iso": "TUN",
      "e164": 788
    }
  },
  {
    "model": "student.country",
    "fields": {
      "name": "Туркмения",
      "iso2": "TM",
      "iso": "TKM",
      "e164": 795
    }
  },
  {
    "model": "student.country",
    "fields": {
      "name": "Турция",
      "iso2": "TR",
      "iso": "TUR",
      "e164": 792
    }
  },
  {
    "model": "student.country",
    "fields": {
      "name": "Уганда",
      "iso2": "UG",
      "iso": "UGA",
      "e164": 800
    }
  },
  {
    "model": "student.country",
    "fields": {
      "name": "Узбекистан",
      "iso2": "UZ",
      "iso": "UZB",
      "e164": 860
    }
  },
  {
    "model": "student.country",
    "fields": {
      "name": "Украина",
      "iso2": "UA",
      "iso": "UKR",
      "e164": 804
    }
  },
  {
    "model": "student.country",
    "fields": {
      "name": "Уоллис и Футуна",
      "iso2": "WF",
      "iso": "WLF",
      "e164": 876
    }
  },
  {
    "model": "student.country",
    "fields": {
      "name": "Уругвай",
      "iso2": "UY",
      "iso": "URY",
      "e164": 858
    }
  },
  {
    "model": "student.country",
    "fields": {
      "name": "Фареры",
      "iso2": "FO",
      "iso": "FRO",
      "e164": 234
    }
  },
  {
    "model": "student.country",
    "fields": {
      "name": "Фиджи",
      "iso2": "FJ",
      "iso": "FJI",
      "e164": 242
    }
  },
  {
    "model": "student.country",
    "fields": {
      "name": "Филиппины",
      "iso2": "PH",
      "iso": "PHL",
      "e164": 608
    }
  },
  {
    "model": "student.country",
    "fields": {
      "name": "Финляндия",
      "iso2": "FI",
      "iso": "FIN",
      "e164": 246
    }
  },
  {
    "model": "student.country",
    "fields": {
      "name": "Флаг ЕС Европейский союз",
      "iso2": "EU",
      "iso": "",
      "e164": ""
    }
  },
  {
    "model": "student.country",
    "fields": {
      "name": "Флаг Шпицбергена и Ян-Майена Шпицберген и Ян-Майен",
      "iso2": "SJ",
      "iso": "SJM",
      "e164": 744
    }
  },
  {
    "model": "student.country",
    "fields": {
      "name": "Фолклендские острова",
      "iso2": "FK",
      "iso": "FLK",
      "e164": 238
    }
  },
  {
    "model": "student.country",
    "fields": {
      "name": "Франция",
      "iso2": "FR",
      "iso": "FRA",
      "e164": 250
    }
  },
  {
    "model": "student.country",
    "fields": {
      "name": "Французская Полинезия",
      "iso2": "PF",
      "iso": "PYF",
      "e164": 258
    }
  },
  {
    "model": "student.country",
    "fields": {
      "name": "Французские Южные и Антарктические территории",
      "iso2": "TF",
      "iso": "ATF",
      "e164": 260
    }
  },
  {
    "model": "student.country",
    "fields": {
      "name": "Херд и Макдональд",
      "iso2": "HM",
      "iso": "HMD",
      "e164": 334
    }
  },
  {
    "model": "student.country",
    "fields": {
      "name": "Хорватия",
      "iso2": "HR",
      "iso": "HRV",
      "e164": 191
    }
  },
  {
    "model": "student.country",
    "fields": {
      "name": "ЦАР",
      "iso2": "CF",
      "iso": "CAF",
      "e164": 140
    }
  },
  {
    "model": "student.country",
    "fields": {
      "name": "Чад",
      "iso2": "TD",
      "iso": "TCD",
      "e164": 148
    }
  },
  {
    "model": "student.country",
    "fields": {
      "name": "Черногория",
      "iso2": "ME",
      "iso": "MNE",
      "e164": 499
    }
  },
  {
    "model": "student.country",
    "fields": {
      "name": "Чехия",
      "iso2": "CZ",
      "iso": "CZE",
      "e164": 203
    }
  },
  {
    "model": "student.country",
    "fields": {
      "name": "Чили",
      "iso2": "CL",
      "iso": "CHL",
      "e164": 152
    }
  },
  {
    "model": "student.country",
    "fields": {
      "name": "Швейцария",
      "iso2": "CH",
      "iso": "CHE",
      "e164": 756
    }
  },
  {
    "model": "student.country",
    "fields": {
      "name": "Швеция",
      "iso2": "SE",
      "iso": "SWE",
      "e164": 752
    }
  },
  {
    "model": "student.country",
    "fields": {
      "name": "Шри-Ланка",
      "iso2": "LK",
      "iso": "LKA",
      "e164": 144
    }
  },
  {
    "model": "student.country",
    "fields": {
      "name": "Эквадор",
      "iso2": "EC",
      "iso": "ECU",
      "e164": 218
    }
  },
  {
    "model": "student.country",
    "fields": {
      "name": "Экваториальная Гвинея",
      "iso2": "GQ",
      "iso": "GNQ",
      "e164": 226
    }
  },
  {
    "model": "student.country",
    "fields": {
      "name": "Эритрея",
      "iso2": "ER",
      "iso": "ERI",
      "e164": 232
    }
  },
  {
    "model": "student.country",
    "fields": {
      "name": "Эсватини",
      "iso2": "SZ",
      "iso": "SWZ",
      "e164": 748
    }
  },
  {
    "model": "student.country",
    "fields": {
      "name": "Эстония",
      "iso2": "EE",
      "iso": "EST",
      "e164": 233
    }
  },
  {
    "model": "student.country",
    "fields": {
      "name": "Эфиопия",
      "iso2": "ET",
      "iso": "ETH",
      "e164": 231
    }
  },
  {
    "model": "student.country",
    "fields": {
      "name": "ЮАР",
      "iso2": "ZA",
      "iso": "ZAF",
      "e164": 710
    }
  },
  {
    "model": "student.country",
    "fields": {
      "name": "Южная Георгия и Южные Сандвичевы Острова",
      "iso2": "GS",
      "iso": "SGS",
      "e164": 239
    }
  },
  {
    "model": "student.country",
    "fields": {
      "name": "Южный Судан",
      "iso2": "SS",
      "iso": "SSD",
      "e164": 728
    }
  },
  {
    "model": "student.country",
    "fields": {
      "name": "Ямайка",
      "iso2": "JM",
      "iso": "JAM",
      "e164": 388
    }
  },
  {
    "model": "student.country",
    "fields": {
      "name": "Япония",
      "iso2": "JP",
      "iso": "JPN",
      "e164": 392
    }
  }
]
